{
    "id": "org.kde.kopete",
    "branch": "master",
    "runtime": "org.kde.Platform",
    "runtime-version": "5.15-21.08",
    "sdk": "org.kde.Sdk",
    "command": "kopete",
    "tags": ["nightly"],
    "desktop-file-name-suffix": " (Nightly)",
    "finish-args": ["--share=ipc", "--socket=x11", "--socket=wayland" ],

    "modules": [
        "boost.json",
        "gpgme.json",
        {
            "config-opts": [ "-DENABLE_TESTING=OFF" ],
            "name": "kdelibs4support",
            "buildsystem": "cmake-ninja",
            "sources": [
                {
                    "type": "git",
                    "url": "https://invent.kde.org/frameworks/kdelibs4support.git",
                    "tag": "v5.85.0",
                    "x-checker-data": {
                        "type": "git",
                        "tag-pattern": "^v([\\d.]+)$"
                    }
                }
            ]
        },
        {
            "config-opts": [ "-DENABLE_TESTING=OFF" ],
            "name": "kjs",
            "buildsystem": "cmake-ninja",
            "sources": [ { "type": "git", "url": "https://invent.kde.org/frameworks/kjs.git", "tag": "v5.85.0" } ]
        },
        {
            "config-opts": [ "-DENABLE_TESTING=OFF" ],
            "name": "khtml",
            "buildsystem": "cmake-ninja",
            "sources": [ { "type": "git", "url": "https://invent.kde.org/frameworks/khtml.git", "tag": "v5.85.0" } ]
        },
        { "name": "grantlee", "buildsystem": "cmake-ninja", "sources": [ { "type": "git", "url": "https://github.com/steveire/grantlee.git" } ] },
        { "name": "kpimtextedit", "buildsystem": "cmake-ninja", "sources": [ { "type": "git", "url": "https://invent.kde.org/kde/kpimtextedit" } ] },
        { "name": "kidentitymanagement", "buildsystem": "cmake-ninja", "sources": [ { "type": "git", "url": "https://invent.kde.org/kde/kidentitymanagement" } ] },
        { "name": "libkleo", "buildsystem": "cmake-ninja", "sources": [ { "type": "git", "url": "https://invent.kde.org/kde/libkleo" } ] },
        {
            "name": "kopete",
            "buildsystem": "cmake-ninja",
            "sources": [
                { "type": "git", "url": "https://invent.kde.org/kde/kopete.git" }
            ]
        }
    ]
}
