{
    "id": "org.kde.dolphin",
    "branch": "master",
    "runtime": "org.kde.Platform",
    "runtime-version": "5.15-21.08",
    "sdk": "org.kde.Sdk",
    "command": "dolphin",
    "tags": ["nightly"],
    "desktop-file-name-suffix": " (Nightly)",
    "finish-args": ["--share=ipc", "--socket=x11", "--socket=wayland", "--filesystem=host" ],

    "modules": [
        {
            "name": "lmdb",
            "sources": [
                {
                    "type": "git",
                    "url": "https://github.com/LMDB/lmdb.git",
                    "tag": "LMDB_0.9.29",
                    "x-checker-data": {
                        "type": "git",
                        "tag-pattern": "^LMDB_([\\d.]+)$"
                    },
                    "commit": "8ad7be2510414b9506ec9f9e24f24d04d9b04a1a"
                }
            ],
            "no-autogen": true,
            "make-install-args": ["prefix=/app"],
            "subdir" : "libraries/liblmdb"
        },
        {
            "config-opts": ["-DENABLE_TESTING=OFF" , "-DLMDB_DIR=/app"],
            "name": "baloo",
            "buildsystem": "cmake-ninja",
	    "builddir": true,
            "sources": [
                {
                    "type": "git",
                    "url": "https://invent.kde.org/frameworks/baloo.git",
                    "tag": "v5.92.0",
                    "x-checker-data": {
                        "type": "git",
                        "tag-pattern": "^v([\\d.]+)$"
                    },
                    "commit": "5aa4d1eb22b00802405b0c2e2a4446a223e50fd2"
                }
            ]
        },
        {
            "config-opts": ["-DENABLE_TESTING=OFF" , "-DLMDB_DIR=/app"],
            "name": "baloo-widgets",
            "buildsystem": "cmake-ninja",
	    "builddir": true,
            "sources": [ { "type": "git", "url": "https://invent.kde.org/libraries/baloo-widgets.git" } ]
        },
        {
	    "config-opts": ["-DFLATPAK=ON"],
            "name": "dolphin",
            "buildsystem": "cmake-ninja",
	    "builddir": true,
            "sources": [ { "type": "git", "url": "https://invent.kde.org/system/dolphin.git" } ]
        },
        {
            "name": "dolphin-plugins",
            "buildsystem": "cmake-ninja",
	    "builddir": true,
            "sources": [ { "type": "git", "url": "https://invent.kde.org/sdk/dolphin-plugins.git" } ]
        }
    ]
}
