{
    "id": "org.kde.itinerary",
    "branch": "master",
    "runtime": "org.kde.Platform",
    "runtime-version": "5.15-21.08",
    "sdk": "org.kde.Sdk",
    "command": "itinerary",
    "tags": ["nightly"],
    "desktop-file-name-suffix": " (Nightly)",
    "finish-args": [
        "--share=ipc",
        "--socket=x11",
        "--socket=wayland",
        "--device=dri",
        "--share=network"
    ],
    "modules": [
        "poppler.json",
        {
            "name": "kitinerary",
            "config-opts": [ "-DENABLE_TESTING=OFF" ],
            "buildsystem": "cmake-ninja",
            "builddir": true,
            "sources": [ { "type": "git", "url": "https://invent.kde.org/pim/kitinerary.git" } ],
            "modules": [
                {
                    "name": "kpkpass",
                    "config-opts": [ "-DBUILD_TESTING=OFF", "-DCMAKE_BUILD_TYPE=RelWithDebInfo" ],
                    "buildsystem": "cmake-ninja",
                    "builddir": true,
                    "sources": [ { "type": "git", "url": "https://invent.kde.org/pim/kpkpass.git" } ],
                    "cleanup": [ "/include", "/lib/cmake", "/mkspecs", "/etc/xdg/*categories" ]
                },
                {
                    "name": "kmime",
                    "config-opts": [ "-DBUILD_TESTING=OFF", "-DCMAKE_BUILD_TYPE=RelWithDebInfo" ],
                    "buildsystem": "cmake-ninja",
                    "builddir": true,
                    "sources": [ { "type": "git", "url": "https://invent.kde.org/pim/kmime.git" } ],
                    "cleanup": [ "/include", "/lib/cmake", "/mkspecs", "/etc/xdg/*categories" ]
                },
                {
                    "name": "zxing",
                    "config-opts": [
                        "-DBUILD_DEPENDENCIES=LOCAL",
                        "-DBUILD_SHARED_LIBS=ON",
                        "-DBUILD_UNIT_TESTS=OFF",
                        "-DBUILD_BLACKBOX_TESTS=OFF",
                        "-DBUILD_EXAMPLES=OFF"
                    ],
                    "buildsystem": "cmake-ninja",
                    "builddir": true,
                    "sources": [ { "type": "git", "url": "https://github.com/nu-book/zxing-cpp" } ],
                    "cleanup": [ "/include", "/lib/cmake", "/mkspecs", "/etc/xdg/*categories" ]
                }
            ],
            "cleanup": [ "/include", "/lib/cmake", "/mkspecs", "/etc/xdg/*categories", "/lib/libexec" ]
        },
        {
            "name": "kpublictransport",
            "config-opts": [ "-DENABLE_TESTING=OFF" ],
            "buildsystem": "cmake-ninja",
            "builddir": true,
            "sources": [ { "type": "git", "url": "https://invent.kde.org/libraries/kpublictransport.git" } ],
            "cleanup": [ "/include", "/lib/cmake", "/mkspecs", "/etc/xdg/*categories" ]
        },
        {
            "name": "kopeninghours",
            "config-opts": [ "-DENABLE_TESTING=OFF" ],
            "buildsystem": "cmake-ninja",
            "builddir": true,
            "sources": [ { "type": "git", "url": "https://invent.kde.org/libraries/kopeninghours.git" } ],
            "cleanup": [ "/include", "/lib/cmake", "/mkspecs", "/etc/xdg/*categories" ]
        },
        {
            "name": "kosmindoormap",
            "config-opts": [ "-DENABLE_TESTING=OFF" ],
            "buildsystem": "cmake-ninja",
            "builddir": true,
            "sources": [ { "type": "git", "url": "https://invent.kde.org/libraries/kosmindoormap.git" } ],
            "cleanup": [ "/include", "/lib/cmake", "/mkspecs", "/etc/xdg/*categories" ]
        },
        {
            "name": "icon",
            "buildsystem": "simple",
            "build-commands": [
                "mkdir -p /app/share/icons/hicolor/32x32/apps/",
                "install -D /usr/share/icons/breeze/actions/22/map-globe.svg /app/share/icons/hicolor/32x32/apps/"
            ]
        },
        {
            "name": "itinerary",
            "buildsystem": "cmake-ninja",
            "builddir": true,
            "sources": [ { "type": "git", "url": "https://invent.kde.org/pim/itinerary.git" } ],
            "cleanup": [ "/etc/xdg/*categories" ]
        }
    ]
}
