{
    "id": "org.kde.kjournald",
    "branch": "master",
    "runtime": "org.kde.Platform",
    "runtime-version": "5.15-21.08",
    "sdk": "org.kde.Sdk",
    "command": "kjournaldbrowser",
    "tags": ["nightly"],
    "rename-desktop-file": "org.kde.kjournaldbrowser.desktop",
    "desktop-file-name-suffix": " (Nightly)",
    "finish-args": [
        "--share=network",
        "--share=ipc",
        "--socket=x11",
        "--socket=wayland",
        "--device=dri",
        "--filesystem=host",
        "--filesystem=/var/log/journal"
    ],
    "modules": [
        {
            "name": "icon",
            "buildsystem": "simple",
            "build-commands": [
                "mkdir -p /app/share/icons/hicolor/32x32/apps/",
                "install -D /usr/share/icons/breeze/apps/32/utilities-log-viewer.svg /app/share/icons/hicolor/32x32/apps/"
            ]
        },
        {
            "name": "kjournald",
            "buildsystem": "cmake-ninja",
            "sources": [ { "type": "git", "url": "https://invent.kde.org/libraries/kjournald.git" } ]
        }
    ]
}
