{
    "id": "org.kde.pix",
    "rename-icon": "pix",
    "runtime": "org.kde.Platform",
    "runtime-version": "5.15-21.08",
    "sdk": "org.kde.Sdk",
    "command": "pix",
    "tags": ["nightly"],
    "desktop-file-name-suffix": " (Nightly)",
    "finish-args": [
        "--share=ipc",
        "--share=network",
        "--socket=x11",
        "--socket=wayland",
        "--device=dri",
        "--filesystem=home",
        "--env=XDG_DATA_DIRS=/usr/share:/app/share/"
    ],
    "separate-locales": false,
    "modules": [
        {
            "name": "mauikit",
            "buildsystem": "cmake-ninja",
            "sources": [
                {
                    "type": "git",
                    "url": "https://invent.kde.org/kde/mauikit.git",
                    "branch": "master"
                }
            ]
        },
        {
            "name": "exiv2",
            "buildsystem": "cmake-ninja",
            "sources": [
                {
                    "type": "archive",
                    "url": "https://github.com/Exiv2/exiv2/releases/download/v0.27.5/exiv2-0.27.5-Source.tar.gz",
                    "sha256": "35a58618ab236a901ca4928b0ad8b31007ebdc0386d904409d825024e45ea6e2",
                    "x-checker-data": {
                        "type": "anitya",
                        "project-id": 769,
                        "stable-only": true,
                        "url-template": "https://github.com/Exiv2/exiv2/releases/download/v$version/exiv2-$version-Source.tar.gz"
                    }
                }
            ]
        },
        {
            "name": "kquickimageeditor",
            "buildsystem": "cmake-ninja",
            "sources": [
                {
                    "type": "archive",
                    "sha256": "5b13f8e53bc7ea960b24064948f3d28bfb39f47529d5fa63a2090a047465c1ea",
                    "url": "https://download.kde.org/stable/kquickimageeditor/0.1/kquickimageeditor-0.1.3.tar.xz",
                    "x-checker-data": {
                        "type": "anitya",
                        "project-id": 229033,
                        "stable-only": true,
                        "url-template": "https://download.kde.org/stable/kquickimageeditor/kquickimageeditor-$version.tar.xz"
                    }
                }
            ]
        },
        {
            "name": "mauikit-imagetools",
            "buildsystem": "cmake-ninja",
            "sources": [
                {
                    "type": "git",
                    "url": "https://invent.kde.org/maui/mauikit-imagetools.git",
                    "branch": "master"
                }
            ]
        },
        {
            "name": "mauikit-filebrowsing",
            "buildsystem": "cmake-ninja",
            "sources": [
                {
                    "type": "git",
                    "url": "https://invent.kde.org/maui/mauikit-filebrowsing.git",
                    "branch": "master"
                }
            ]
        },
        {
            "name": "kio-extras",
            "buildsystem": "cmake-ninja",
            "sources": [
                {
                    "type": "git",
                    "url": "https://invent.kde.org/kde/kio-extras.git",
                    "branch": "release/21.04"
                }
            ]
        },
        {
            "name": "kdecoration",
            "buildsystem": "cmake-ninja",
            "sources": [
                {
                    "type": "archive",
                    "sha256": "bc550b7bfde5b5762e76b33ac53f8268b6178ae389c953d729b864b22787d54c",
                    "url": "https://download.kde.org/stable/plasma/5.21.5/kdecoration-5.21.5.tar.xz",
                    "x-checker-data": {
                        "type": "anitya",
                        "project-id": 8761,
                        "stable-only": true,
                        "url-template": "https://download.kde.org/stable/plasma/$version/kdecoration-$version.tar.xz"
                    }
                }
            ]
        },
        {
            "name": "applet-window-buttons",
            "buildsystem": "cmake-ninja",
            "sources": [
                {
                    "type": "git",
                    "url": "https://github.com/psifidotos/applet-window-buttons",
                    "branch": "master"
                }
            ]
        },
        {
            "name": "pix",
            "buildsystem": "cmake-ninja",
            "sources": [
                {
                    "type": "git",
                    "url": "https://invent.kde.org/kde/maui-pix.git",
                    "branch": "master"
                }
            ]
        }
    ]
}

