{
    "id": "org.kde.arkade",
    "branch": "master",
    "runtime": "org.kde.Platform",
    "runtime-version": "5.15-21.08",
    "sdk": "org.kde.Sdk",
    "command": "arkade",
    "tags": ["nightly"],
    "desktop-file-name-suffix": " (Nightly)",
    "finish-args": ["--socket=x11", "--socket=wayland" ],

    "modules": [
        {
            "name": "arkade",
            "buildsystem": "cmake-ninja",
            "sources": [ { "type": "git", "url": "https://invent.kde.org/games/arkade", "branch": "master" } ]
        }
    ]
}
