{
	"command": "subtitlecomposer",
	"finish-args": [
		"--share=ipc",
		"--device=dri",
		"--socket=fallback-x11",
		"--socket=wayland",
		"--socket=pulseaudio"
	],
	"id": "org.kde.subtitlecomposer",
	"runtime": "org.kde.Platform",
	"runtime-version": "5.15-21.08",
	"sdk": "org.kde.Sdk",
	"tags": ["nightly"],
	"desktop-file-name-suffix": " (Nightly)",
	"cleanup": [
		"/include",
		"/lib/pkgconfig",
		"/share/pkgconfig",
		"/share/aclocal",
		"/man",
		"/share/man"
	],
	"cleanup-commands": [
		"mkdir -p /app/lib/ffmpeg"
    ],
	"rename-icon": "subtitlecomposer",
	"add-extensions": {
		"org.freedesktop.Platform.ffmpeg-full": {
			"directory": "lib/ffmpeg",
			"add-ld-path": ".",
			"version": "21.08"
		}
	},
	"modules": [
		{
			"buildsystem": "autotools",
			"name": "SphinxBase",
			"config-opts": [
				"--without-python"
			],
			"sources": [
				{
					"type": "git",
					"url": "https://github.com/cmusphinx/sphinxbase.git"
				}
			]
		},
		{
			"buildsystem": "autotools",
			"name": "PocketSphinx",
			"config-opts": [
				"--without-python"
			],
			"sources": [
				{
					"type": "git",
					"url": "https://github.com/cmusphinx/pocketsphinx.git"
				}
			]
		},
		{
			"buildsystem": "cmake-ninja",
			"name": "kross",
			"sources": [
				{
					"tag": "v5.85.0",
					"type": "git",
					"url": "https://invent.kde.org/frameworks/kross.git"
				}
			]
		},
		{
			"buildsystem": "cmake-ninja",
			"name": "subtitlecomposer",
			"config-opts": [
				"-DBUILD_TESTING=OFF"
			],
			"sources": [
				{
					"type": "git",
					"url": "https://invent.kde.org/multimedia/subtitlecomposer.git"
				}
			]
		}
	]
}
