{
    "id": "org.kde.kdiff3-stable",
    "branch": "1.8",
    "runtime": "org.kde.Platform",
    "runtime-version": "5.15-21.08",
    "sdk": "org.kde.Sdk",
    "command": "kdiff3",
    "tags": ["nightly-stable"],
    "desktop-file-name-suffix": " (Nightly, Stable)",
    "rename-desktop-file": "org.kde.kdiff3.desktop",
    "finish-args": ["--device=dri", "--share=network", "--share=ipc", "--socket=system-bus", "--socket=x11", "--socket=wayland", "--filesystem=host" ],
    "modules": [
        {
            "name": "kdiff3",
            "buildsystem": "cmake-ninja",
            "sources": [
                { "type": "git", "url": "https://invent.kde.org/sdk/kdiff3.git", "branch": "1.8" }
            ]
        }
    ]
}
