{
    "id": "org.kde.khangman",
    "branch": "master",
    "runtime": "org.kde.Platform",
    "runtime-version": "5.15-21.08",
    "sdk": "org.kde.Sdk",
    "command": "khangman",
    "rename-icon": "khangman",
    "tags": ["nightly"],
    "desktop-file-name-suffix": " (Nightly)",
    "finish-args": [
        "--share=network",
        "--socket=pulseaudio",
        "--share=ipc",
        "--socket=x11",
        "--socket=wayland",
        "--device=dri"
    ],
    "modules": [
        {
            "name": "libkeduvocdocument",
            "buildsystem": "cmake-ninja",
            "sources": [ { "type": "git", "url": "https://invent.kde.org/kde/libkeduvocdocument.git" } ]
        },
        {
            "name": "kdeedu-data",
            "buildsystem": "cmake-ninja",
            "sources": [ { "type": "git", "url": "https://invent.kde.org/kde/kdeedu-data.git" } ]
        },
        {
            "name": "khangman",
            "buildsystem": "cmake-ninja",
            "sources": [ { "type": "git", "url": "https://invent.kde.org/kde/khangman.git" } ]
        }
    ]
}
