{
    "id": "org.kde.calligraplan",
    "branch": "master",
    "runtime": "org.kde.Platform",
    "runtime-version": "5.15-21.08",
    "sdk": "org.kde.Sdk",
    "command": "calligraplan",
    "tags": ["nightly"],
    "desktop-file-name-suffix": " (Nightly)",
    "finish-args": ["--share=network", "--share=ipc", "--socket=x11", "--socket=wayland" ],

    "modules": [
        "eigen.json",
        {
            "name": "kjs",
            "buildsystem": "cmake-ninja",
            "config-opts": [ "-DENABLE_TESTING=OFF" ],
            "sources": [
                {
                    "type": "git",
                    "url": "https://invent.kde.org/frameworks/kjs.git",
                    "tag": "v5.92.0",
                    "x-checker-data": {
                        "type": "git",
                        "tag-pattern": "^v([\\d.]+)$"
                    },
                    "commit": "ff72aaa777fd7cd2df19db699e02b045c07efecb"
                }
            ]
        },
        {
            "name": "khtml",
            "config-opts": [ "-DENABLE_TESTING=OFF" ],
            "buildsystem": "cmake-ninja",
            "sources": [
                {
                    "type": "git",
                    "url": "https://invent.kde.org/frameworks/khtml.git",
                    "tag": "v5.92.0",
                    "x-checker-data": {
                        "type": "git",
                        "tag-pattern": "^v([\\d.]+)$"
                    },
                    "commit": "97ac7de4e0a54fab9822e143416e02e348af0290"
                }
            ]
        },
        {
            "config-opts": [ "-DENABLE_TESTING=OFF" ],
            "name": "kross",
            "buildsystem": "cmake-ninja",
            "sources": [
                {
                    "type": "git",
                    "url": "https://invent.kde.org/kde/kross.git",
                    "tag": "v5.92.0",
                    "x-checker-data": {
                        "type": "git",
                        "tag-pattern": "^v([\\d.]+)$"
                    },
                    "commit": "a855fccda3fb1998517a15902eab3f3694c977d8"
                }
            ]
        },
        {
            "config-opts": [ "-DENABLE_TESTING=OFF" ],
            "name": "kdiagram",
            "buildsystem": "cmake-ninja",
            "sources": [ { "type": "git", "url": "https://invent.kde.org/kde/kdiagram.git" } ]
        },
        {
            "name": "calligraplan",
            "buildsystem": "cmake-ninja",
            "builddir": true,
            "config-opts": ["-DENABLE_TESTING=OFF"],
            "sources": [ { "type": "git", "url": "https://invent.kde.org/kde/calligraplan.git" } ]
        }
    ]
}
