{
    "id": "org.kde.kirigami2.gallery",
    "branch": "master",
    "runtime": "org.kde.Platform",
    "runtime-version": "5.15-21.08",
    "sdk": "org.kde.Sdk",
    "tags": ["nightly"],
    "desktop-file-name-suffix": " (Nightly)",
    "finish-args": ["--share=ipc", "--share=network", "--socket=x11", "--socket=wayland", "--device=dri" ],

    "modules": [
        {
            "name": "kirigamigallery",
            "config-opts": ["-DCMAKE_BUILD_TYPE=debug"],
            "buildsystem": "cmake-ninja",
            "builddir": true,
            "sources": [ { "type": "git", "url": "https://invent.kde.org/sdk/kirigami-gallery.git", "branch": "master" } ]
        }
    ]
}
